{
  "pricescraper_extension_name": {
    "message": "Pricescraper",
    "description": "The name of this extension."
  },
  "pricescraper_extension_desc": {
    "message": "Easily configure pricescraper and check for price evolutions.",
    "description": "Description of what this extension does."
  }
}
